"FindCode","Type","TractNo","WalkerNo","DatingStart","DatingEnd"
"17RK001","P",001,"w001","-2500","-2000"
"17RK002","P",001,"w001","-500","-300"
"17RK003","P",005,"w005","500","800"
"17RK004","P",006,"w009","-50","100"
"17RK005","P",013,"w001","-100","15"
"17RK006","P",113,"w020","-2500","-2000"
"17RK007","P",113,"w021","-2700","-2300"
"17RK008","P",113,"w022","-2500","-1800"
"17RK009","P",114,"w015","-2600","-2200"
"17RK010","P",114,"w020","-2800","-1800"
"17RK011","P",114,"w021","-2500","-2000"
"17RK012","P",114,"w022","-2700","-2100"
"17RK013","P",117,"w014","-2500","-2000"
"17RK014","P",118,"w014","-600","-300"
"17RK015","P",119,"w015","100","300"
"17RK016","P",119,"w021","200","400"
