"Period","DatingStart","DatingEnd","Abbreviation"
"Early Bronze Age",-3000,-2000,"EBA"
"Middle Bronze Age",-2000,-1600,"MBA"
"Late Bronze Age",-1600,-1200,"LBA"
"Early Iron Age",-1200,-900,"EIA"
"Geometric",-900,-700,"GEO"
"Archaic",-750,-500,"ARC"
"Classical",-500,-350,"CLA"
"Hellenistic",-350,-50,"HEL"
"Roman",-50,300,"ROM"
"Late Roman",300,600,"LROM"
"Early Byzantine",600,900,"EBYZ"
